…
From (https://www.autodeskresearch.com/publications/samestats)

## The dataset...

```r
datasaurus_dozen
```

```
## # A tibble: 1,846 x 3
##    dataset       x       y
##      <chr>   <dbl>   <dbl>
##  1    dino 55.3846 97.1795
##  2    dino 51.5385 96.0256
##  3    dino 46.1538 94.4872
##  4    dino 42.8205 91.4103
##  5    dino 40.7692 88.3333
##  6    dino 38.7179 84.8718
##  7    dino 35.6410 79.8718
##  8    dino 33.0769 77.5641
##  9    dino 28.9744 74.4872
## 10    dino 26.1538 71.4103
## # ... with 1,836 more rows
```
…
